2022-01-05 21:07:07,130 DEBUG    root            Loaded Command Group: ['gcloud', 'components']
2022-01-05 21:07:07,132 DEBUG    root            Loaded Command Group: ['gcloud', 'components', 'list']
2022-01-05 21:07:07,135 DEBUG    root            Running [gcloud.components.list] with arguments: [--format: "json", --quiet: "True"]
2022-01-05 21:07:07,137 DEBUG    urllib3.connectionpool Starting new HTTPS connection (1): dl.google.com:443
2022-01-05 21:07:07,239 DEBUG    urllib3.connectionpool https://dl.google.com:443 "GET /dl/cloudsdk/channels/rapid/components-2.json HTTP/1.1" 200 176227
2022-01-05 21:07:07,340 INFO     ___FILE_ONLY___ 
Your current Cloud SDK version is: 367.0.0

2022-01-05 21:07:07,340 INFO     ___FILE_ONLY___ The latest available version is: 367.0.0

2022-01-05 21:07:07,341 INFO     ___FILE_ONLY___ 

2022-01-05 21:07:07,342 INFO     root            Display format: "table[box,title="Components"](state.name:label=Status,name:label=Name,id:label=ID,size.size(zero="",min=1048576):label=Size:align=right) json"
2022-01-05 21:07:07,344 INFO     ___FILE_ONLY___ [
  {
2022-01-05 21:07:07,344 INFO     ___FILE_ONLY___ 
    "current_version_string": null,
2022-01-05 21:07:07,344 INFO     ___FILE_ONLY___ 
    "id": "app-engine-go",
2022-01-05 21:07:07,344 INFO     ___FILE_ONLY___ 
    "is_configuration": false,
2022-01-05 21:07:07,344 INFO     ___FILE_ONLY___ 
    "is_hidden": false,
2022-01-05 21:07:07,345 INFO     ___FILE_ONLY___ 
    "latest_version_string": "1.9.72",
2022-01-05 21:07:07,345 INFO     ___FILE_ONLY___ 
    "name": "App Engine Go Extensions",
2022-01-05 21:07:07,345 INFO     ___FILE_ONLY___ 
    "platform": {
2022-01-05 21:07:07,345 INFO     ___FILE_ONLY___ 
      "architecture": {
2022-01-05 21:07:07,345 INFO     ___FILE_ONLY___ 
        "file_name": "x86_64",
2022-01-05 21:07:07,345 INFO     ___FILE_ONLY___ 
        "id": "x86_64",
2022-01-05 21:07:07,345 INFO     ___FILE_ONLY___ 
        "name": "x86_64"
2022-01-05 21:07:07,345 INFO     ___FILE_ONLY___ 
      },
2022-01-05 21:07:07,345 INFO     ___FILE_ONLY___ 
      "operating_system": {
2022-01-05 21:07:07,345 INFO     ___FILE_ONLY___ 
        "file_name": "linux",
2022-01-05 21:07:07,345 INFO     ___FILE_ONLY___ 
        "id": "LINUX",
2022-01-05 21:07:07,345 INFO     ___FILE_ONLY___ 
        "name": "Linux"
2022-01-05 21:07:07,345 INFO     ___FILE_ONLY___ 
      }
2022-01-05 21:07:07,346 INFO     ___FILE_ONLY___ 
    },
2022-01-05 21:07:07,346 INFO     ___FILE_ONLY___ 
    "platform_required": false,
2022-01-05 21:07:07,346 INFO     ___FILE_ONLY___ 
    "size": 4407886,
2022-01-05 21:07:07,346 INFO     ___FILE_ONLY___ 
    "state": {
2022-01-05 21:07:07,346 INFO     ___FILE_ONLY___ 
      "name": "Not Installed"
2022-01-05 21:07:07,346 INFO     ___FILE_ONLY___ 
    }
2022-01-05 21:07:07,346 INFO     ___FILE_ONLY___ 
  }
2022-01-05 21:07:07,347 INFO     ___FILE_ONLY___ ,
  {
2022-01-05 21:07:07,347 INFO     ___FILE_ONLY___ 
    "current_version_string": null,
2022-01-05 21:07:07,347 INFO     ___FILE_ONLY___ 
    "id": "appctl",
2022-01-05 21:07:07,347 INFO     ___FILE_ONLY___ 
    "is_configuration": false,
2022-01-05 21:07:07,347 INFO     ___FILE_ONLY___ 
    "is_hidden": false,
2022-01-05 21:07:07,347 INFO     ___FILE_ONLY___ 
    "latest_version_string": "0.1.12",
2022-01-05 21:07:07,347 INFO     ___FILE_ONLY___ 
    "name": "Appctl",
2022-01-05 21:07:07,347 INFO     ___FILE_ONLY___ 
    "platform": {
2022-01-05 21:07:07,347 INFO     ___FILE_ONLY___ 
      "architecture": {
2022-01-05 21:07:07,347 INFO     ___FILE_ONLY___ 
        "file_name": "x86_64",
2022-01-05 21:07:07,348 INFO     ___FILE_ONLY___ 
        "id": "x86_64",
2022-01-05 21:07:07,348 INFO     ___FILE_ONLY___ 
        "name": "x86_64"
2022-01-05 21:07:07,348 INFO     ___FILE_ONLY___ 
      },
2022-01-05 21:07:07,348 INFO     ___FILE_ONLY___ 
      "operating_system": {
2022-01-05 21:07:07,348 INFO     ___FILE_ONLY___ 
        "file_name": "linux",
2022-01-05 21:07:07,348 INFO     ___FILE_ONLY___ 
        "id": "LINUX",
2022-01-05 21:07:07,348 INFO     ___FILE_ONLY___ 
        "name": "Linux"
2022-01-05 21:07:07,348 INFO     ___FILE_ONLY___ 
      }
2022-01-05 21:07:07,348 INFO     ___FILE_ONLY___ 
    },
2022-01-05 21:07:07,348 INFO     ___FILE_ONLY___ 
    "platform_required": false,
2022-01-05 21:07:07,348 INFO     ___FILE_ONLY___ 
    "size": 22041660,
2022-01-05 21:07:07,348 INFO     ___FILE_ONLY___ 
    "state": {
2022-01-05 21:07:07,348 INFO     ___FILE_ONLY___ 
      "name": "Not Installed"
2022-01-05 21:07:07,348 INFO     ___FILE_ONLY___ 
    }
2022-01-05 21:07:07,348 INFO     ___FILE_ONLY___ 
  }
2022-01-05 21:07:07,349 INFO     ___FILE_ONLY___ ,
  {
2022-01-05 21:07:07,349 INFO     ___FILE_ONLY___ 
    "current_version_string": null,
2022-01-05 21:07:07,349 INFO     ___FILE_ONLY___ 
    "id": "cbt",
2022-01-05 21:07:07,349 INFO     ___FILE_ONLY___ 
    "is_configuration": false,
2022-01-05 21:07:07,349 INFO     ___FILE_ONLY___ 
    "is_hidden": false,
2022-01-05 21:07:07,349 INFO     ___FILE_ONLY___ 
    "latest_version_string": "0.10.1",
2022-01-05 21:07:07,349 INFO     ___FILE_ONLY___ 
    "name": "Cloud Bigtable Command Line Tool",
2022-01-05 21:07:07,350 INFO     ___FILE_ONLY___ 
    "platform": {
2022-01-05 21:07:07,350 INFO     ___FILE_ONLY___ 
      "architecture": {
2022-01-05 21:07:07,350 INFO     ___FILE_ONLY___ 
        "file_name": "x86_64",
2022-01-05 21:07:07,350 INFO     ___FILE_ONLY___ 
        "id": "x86_64",
2022-01-05 21:07:07,350 INFO     ___FILE_ONLY___ 
        "name": "x86_64"
2022-01-05 21:07:07,350 INFO     ___FILE_ONLY___ 
      },
2022-01-05 21:07:07,350 INFO     ___FILE_ONLY___ 
      "operating_system": {
2022-01-05 21:07:07,350 INFO     ___FILE_ONLY___ 
        "file_name": "linux",
2022-01-05 21:07:07,350 INFO     ___FILE_ONLY___ 
        "id": "LINUX",
2022-01-05 21:07:07,350 INFO     ___FILE_ONLY___ 
        "name": "Linux"
2022-01-05 21:07:07,350 INFO     ___FILE_ONLY___ 
      }
2022-01-05 21:07:07,350 INFO     ___FILE_ONLY___ 
    },
2022-01-05 21:07:07,350 INFO     ___FILE_ONLY___ 
    "platform_required": false,
2022-01-05 21:07:07,350 INFO     ___FILE_ONLY___ 
    "size": 8136773,
2022-01-05 21:07:07,350 INFO     ___FILE_ONLY___ 
    "state": {
2022-01-05 21:07:07,350 INFO     ___FILE_ONLY___ 
      "name": "Not Installed"
2022-01-05 21:07:07,350 INFO     ___FILE_ONLY___ 
    }
2022-01-05 21:07:07,350 INFO     ___FILE_ONLY___ 
  }
2022-01-05 21:07:07,351 INFO     ___FILE_ONLY___ ,
  {
2022-01-05 21:07:07,351 INFO     ___FILE_ONLY___ 
    "current_version_string": null,
2022-01-05 21:07:07,351 INFO     ___FILE_ONLY___ 
    "id": "bigtable",
2022-01-05 21:07:07,351 INFO     ___FILE_ONLY___ 
    "is_configuration": false,
2022-01-05 21:07:07,351 INFO     ___FILE_ONLY___ 
    "is_hidden": false,
2022-01-05 21:07:07,351 INFO     ___FILE_ONLY___ 
    "latest_version_string": "",
2022-01-05 21:07:07,351 INFO     ___FILE_ONLY___ 
    "name": "Cloud Bigtable Emulator",
2022-01-05 21:07:07,351 INFO     ___FILE_ONLY___ 
    "platform": {
2022-01-05 21:07:07,351 INFO     ___FILE_ONLY___ 
      "architecture": {
2022-01-05 21:07:07,351 INFO     ___FILE_ONLY___ 
        "file_name": "x86_64",
2022-01-05 21:07:07,351 INFO     ___FILE_ONLY___ 
        "id": "x86_64",
2022-01-05 21:07:07,352 INFO     ___FILE_ONLY___ 
        "name": "x86_64"
2022-01-05 21:07:07,352 INFO     ___FILE_ONLY___ 
      },
2022-01-05 21:07:07,352 INFO     ___FILE_ONLY___ 
      "operating_system": {
2022-01-05 21:07:07,352 INFO     ___FILE_ONLY___ 
        "file_name": "linux",
2022-01-05 21:07:07,352 INFO     ___FILE_ONLY___ 
        "id": "LINUX",
2022-01-05 21:07:07,352 INFO     ___FILE_ONLY___ 
        "name": "Linux"
2022-01-05 21:07:07,352 INFO     ___FILE_ONLY___ 
      }
2022-01-05 21:07:07,352 INFO     ___FILE_ONLY___ 
    },
2022-01-05 21:07:07,352 INFO     ___FILE_ONLY___ 
    "platform_required": false,
2022-01-05 21:07:07,352 INFO     ___FILE_ONLY___ 
    "size": 6334742,
2022-01-05 21:07:07,352 INFO     ___FILE_ONLY___ 
    "state": {
2022-01-05 21:07:07,352 INFO     ___FILE_ONLY___ 
      "name": "Not Installed"
2022-01-05 21:07:07,352 INFO     ___FILE_ONLY___ 
    }
2022-01-05 21:07:07,352 INFO     ___FILE_ONLY___ 
  }
2022-01-05 21:07:07,353 INFO     ___FILE_ONLY___ ,
  {
2022-01-05 21:07:07,353 INFO     ___FILE_ONLY___ 
    "current_version_string": null,
2022-01-05 21:07:07,353 INFO     ___FILE_ONLY___ 
    "id": "datalab",
2022-01-05 21:07:07,353 INFO     ___FILE_ONLY___ 
    "is_configuration": false,
2022-01-05 21:07:07,353 INFO     ___FILE_ONLY___ 
    "is_hidden": false,
2022-01-05 21:07:07,353 INFO     ___FILE_ONLY___ 
    "latest_version_string": "20190610",
2022-01-05 21:07:07,353 INFO     ___FILE_ONLY___ 
    "name": "Cloud Datalab Command Line Tool",
2022-01-05 21:07:07,353 INFO     ___FILE_ONLY___ 
    "platform": {
2022-01-05 21:07:07,353 INFO     ___FILE_ONLY___ 
      "architecture": {
2022-01-05 21:07:07,353 INFO     ___FILE_ONLY___ 
        "file_name": "x86_64",
2022-01-05 21:07:07,353 INFO     ___FILE_ONLY___ 
        "id": "x86_64",
2022-01-05 21:07:07,353 INFO     ___FILE_ONLY___ 
        "name": "x86_64"
2022-01-05 21:07:07,353 INFO     ___FILE_ONLY___ 
      },
2022-01-05 21:07:07,353 INFO     ___FILE_ONLY___ 
      "operating_system": {
2022-01-05 21:07:07,354 INFO     ___FILE_ONLY___ 
        "file_name": "linux",
2022-01-05 21:07:07,354 INFO     ___FILE_ONLY___ 
        "id": "LINUX",
2022-01-05 21:07:07,354 INFO     ___FILE_ONLY___ 
        "name": "Linux"
2022-01-05 21:07:07,354 INFO     ___FILE_ONLY___ 
      }
2022-01-05 21:07:07,354 INFO     ___FILE_ONLY___ 
    },
2022-01-05 21:07:07,354 INFO     ___FILE_ONLY___ 
    "platform_required": false,
2022-01-05 21:07:07,354 INFO     ___FILE_ONLY___ 
    "size": 74849,
2022-01-05 21:07:07,354 INFO     ___FILE_ONLY___ 
    "state": {
2022-01-05 21:07:07,354 INFO     ___FILE_ONLY___ 
      "name": "Not Installed"
2022-01-05 21:07:07,354 INFO     ___FILE_ONLY___ 
    }
2022-01-05 21:07:07,354 INFO     ___FILE_ONLY___ 
  }
2022-01-05 21:07:07,355 INFO     ___FILE_ONLY___ ,
  {
2022-01-05 21:07:07,355 INFO     ___FILE_ONLY___ 
    "current_version_string": null,
2022-01-05 21:07:07,355 INFO     ___FILE_ONLY___ 
    "id": "cloud-datastore-emulator",
2022-01-05 21:07:07,355 INFO     ___FILE_ONLY___ 
    "is_configuration": false,
2022-01-05 21:07:07,355 INFO     ___FILE_ONLY___ 
    "is_hidden": false,
2022-01-05 21:07:07,355 INFO     ___FILE_ONLY___ 
    "latest_version_string": "2.1.0",
2022-01-05 21:07:07,355 INFO     ___FILE_ONLY___ 
    "name": "Cloud Datastore Emulator",
2022-01-05 21:07:07,355 INFO     ___FILE_ONLY___ 
    "platform": {
2022-01-05 21:07:07,355 INFO     ___FILE_ONLY___ 
      "architecture": {
2022-01-05 21:07:07,355 INFO     ___FILE_ONLY___ 
        "file_name": "x86_64",
2022-01-05 21:07:07,355 INFO     ___FILE_ONLY___ 
        "id": "x86_64",
2022-01-05 21:07:07,355 INFO     ___FILE_ONLY___ 
        "name": "x86_64"
2022-01-05 21:07:07,355 INFO     ___FILE_ONLY___ 
      },
2022-01-05 21:07:07,355 INFO     ___FILE_ONLY___ 
      "operating_system": {
2022-01-05 21:07:07,356 INFO     ___FILE_ONLY___ 
        "file_name": "linux",
2022-01-05 21:07:07,356 INFO     ___FILE_ONLY___ 
        "id": "LINUX",
2022-01-05 21:07:07,356 INFO     ___FILE_ONLY___ 
        "name": "Linux"
2022-01-05 21:07:07,356 INFO     ___FILE_ONLY___ 
      }
2022-01-05 21:07:07,356 INFO     ___FILE_ONLY___ 
    },
2022-01-05 21:07:07,356 INFO     ___FILE_ONLY___ 
    "platform_required": false,
2022-01-05 21:07:07,356 INFO     ___FILE_ONLY___ 
    "size": 19269211,
2022-01-05 21:07:07,356 INFO     ___FILE_ONLY___ 
    "state": {
2022-01-05 21:07:07,356 INFO     ___FILE_ONLY___ 
      "name": "Not Installed"
2022-01-05 21:07:07,356 INFO     ___FILE_ONLY___ 
    }
2022-01-05 21:07:07,356 INFO     ___FILE_ONLY___ 
  }
2022-01-05 21:07:07,356 INFO     ___FILE_ONLY___ ,
  {
2022-01-05 21:07:07,357 INFO     ___FILE_ONLY___ 
    "current_version_string": null,
2022-01-05 21:07:07,357 INFO     ___FILE_ONLY___ 
    "id": "cloud-firestore-emulator",
2022-01-05 21:07:07,357 INFO     ___FILE_ONLY___ 
    "is_configuration": false,
2022-01-05 21:07:07,357 INFO     ___FILE_ONLY___ 
    "is_hidden": false,
2022-01-05 21:07:07,357 INFO     ___FILE_ONLY___ 
    "latest_version_string": "1.13.1",
2022-01-05 21:07:07,357 INFO     ___FILE_ONLY___ 
    "name": "Cloud Firestore Emulator",
2022-01-05 21:07:07,357 INFO     ___FILE_ONLY___ 
    "platform": {
2022-01-05 21:07:07,357 INFO     ___FILE_ONLY___ 
      "architecture": {
2022-01-05 21:07:07,357 INFO     ___FILE_ONLY___ 
        "file_name": "x86_64",
2022-01-05 21:07:07,357 INFO     ___FILE_ONLY___ 
        "id": "x86_64",
2022-01-05 21:07:07,357 INFO     ___FILE_ONLY___ 
        "name": "x86_64"
2022-01-05 21:07:07,357 INFO     ___FILE_ONLY___ 
      },
2022-01-05 21:07:07,357 INFO     ___FILE_ONLY___ 
      "operating_system": {
2022-01-05 21:07:07,357 INFO     ___FILE_ONLY___ 
        "file_name": "linux",
2022-01-05 21:07:07,357 INFO     ___FILE_ONLY___ 
        "id": "LINUX",
2022-01-05 21:07:07,357 INFO     ___FILE_ONLY___ 
        "name": "Linux"
2022-01-05 21:07:07,357 INFO     ___FILE_ONLY___ 
      }
2022-01-05 21:07:07,357 INFO     ___FILE_ONLY___ 
    },
2022-01-05 21:07:07,358 INFO     ___FILE_ONLY___ 
    "platform_required": false,
2022-01-05 21:07:07,358 INFO     ___FILE_ONLY___ 
    "size": 42434588,
2022-01-05 21:07:07,358 INFO     ___FILE_ONLY___ 
    "state": {
2022-01-05 21:07:07,358 INFO     ___FILE_ONLY___ 
      "name": "Not Installed"
2022-01-05 21:07:07,358 INFO     ___FILE_ONLY___ 
    }
2022-01-05 21:07:07,358 INFO     ___FILE_ONLY___ 
  }
2022-01-05 21:07:07,358 INFO     ___FILE_ONLY___ ,
  {
2022-01-05 21:07:07,358 INFO     ___FILE_ONLY___ 
    "current_version_string": null,
2022-01-05 21:07:07,358 INFO     ___FILE_ONLY___ 
    "id": "pubsub-emulator",
2022-01-05 21:07:07,358 INFO     ___FILE_ONLY___ 
    "is_configuration": false,
2022-01-05 21:07:07,358 INFO     ___FILE_ONLY___ 
    "is_hidden": false,
2022-01-05 21:07:07,359 INFO     ___FILE_ONLY___ 
    "latest_version_string": "0.6.0",
2022-01-05 21:07:07,359 INFO     ___FILE_ONLY___ 
    "name": "Cloud Pub/Sub Emulator",
2022-01-05 21:07:07,359 INFO     ___FILE_ONLY___ 
    "platform": {
2022-01-05 21:07:07,359 INFO     ___FILE_ONLY___ 
      "architecture": {
2022-01-05 21:07:07,359 INFO     ___FILE_ONLY___ 
        "file_name": "x86_64",
2022-01-05 21:07:07,359 INFO     ___FILE_ONLY___ 
        "id": "x86_64",
2022-01-05 21:07:07,359 INFO     ___FILE_ONLY___ 
        "name": "x86_64"
2022-01-05 21:07:07,359 INFO     ___FILE_ONLY___ 
      },
2022-01-05 21:07:07,359 INFO     ___FILE_ONLY___ 
      "operating_system": {
2022-01-05 21:07:07,359 INFO     ___FILE_ONLY___ 
        "file_name": "linux",
2022-01-05 21:07:07,359 INFO     ___FILE_ONLY___ 
        "id": "LINUX",
2022-01-05 21:07:07,360 INFO     ___FILE_ONLY___ 
        "name": "Linux"
2022-01-05 21:07:07,360 INFO     ___FILE_ONLY___ 
      }
2022-01-05 21:07:07,360 INFO     ___FILE_ONLY___ 
    },
2022-01-05 21:07:07,360 INFO     ___FILE_ONLY___ 
    "platform_required": false,
2022-01-05 21:07:07,360 INFO     ___FILE_ONLY___ 
    "size": 63687051,
2022-01-05 21:07:07,360 INFO     ___FILE_ONLY___ 
    "state": {
2022-01-05 21:07:07,360 INFO     ___FILE_ONLY___ 
      "name": "Not Installed"
2022-01-05 21:07:07,360 INFO     ___FILE_ONLY___ 
    }
2022-01-05 21:07:07,360 INFO     ___FILE_ONLY___ 
  }
2022-01-05 21:07:07,361 INFO     ___FILE_ONLY___ ,
  {
2022-01-05 21:07:07,361 INFO     ___FILE_ONLY___ 
    "current_version_string": null,
2022-01-05 21:07:07,362 INFO     ___FILE_ONLY___ 
    "id": "cloud_sql_proxy",
2022-01-05 21:07:07,362 INFO     ___FILE_ONLY___ 
    "is_configuration": false,
2022-01-05 21:07:07,362 INFO     ___FILE_ONLY___ 
    "is_hidden": false,
2022-01-05 21:07:07,362 INFO     ___FILE_ONLY___ 
    "latest_version_string": "1.27.0",
2022-01-05 21:07:07,362 INFO     ___FILE_ONLY___ 
    "name": "Cloud SQL Proxy",
2022-01-05 21:07:07,362 INFO     ___FILE_ONLY___ 
    "platform": {
2022-01-05 21:07:07,362 INFO     ___FILE_ONLY___ 
      "architecture": {
2022-01-05 21:07:07,362 INFO     ___FILE_ONLY___ 
        "file_name": "x86_64",
2022-01-05 21:07:07,362 INFO     ___FILE_ONLY___ 
        "id": "x86_64",
2022-01-05 21:07:07,362 INFO     ___FILE_ONLY___ 
        "name": "x86_64"
2022-01-05 21:07:07,363 INFO     ___FILE_ONLY___ 
      },
2022-01-05 21:07:07,363 INFO     ___FILE_ONLY___ 
      "operating_system": {
2022-01-05 21:07:07,363 INFO     ___FILE_ONLY___ 
        "file_name": "linux",
2022-01-05 21:07:07,363 INFO     ___FILE_ONLY___ 
        "id": "LINUX",
2022-01-05 21:07:07,363 INFO     ___FILE_ONLY___ 
        "name": "Linux"
2022-01-05 21:07:07,363 INFO     ___FILE_ONLY___ 
      }
2022-01-05 21:07:07,363 INFO     ___FILE_ONLY___ 
    },
2022-01-05 21:07:07,363 INFO     ___FILE_ONLY___ 
    "platform_required": false,
2022-01-05 21:07:07,363 INFO     ___FILE_ONLY___ 
    "size": 8154678,
2022-01-05 21:07:07,363 INFO     ___FILE_ONLY___ 
    "state": {
2022-01-05 21:07:07,363 INFO     ___FILE_ONLY___ 
      "name": "Not Installed"
2022-01-05 21:07:07,364 INFO     ___FILE_ONLY___ 
    }
2022-01-05 21:07:07,364 INFO     ___FILE_ONLY___ 
  }
2022-01-05 21:07:07,364 INFO     ___FILE_ONLY___ ,
  {
2022-01-05 21:07:07,365 INFO     ___FILE_ONLY___ 
    "current_version_string": null,
2022-01-05 21:07:07,365 INFO     ___FILE_ONLY___ 
    "id": "cloud-spanner-emulator",
2022-01-05 21:07:07,365 INFO     ___FILE_ONLY___ 
    "is_configuration": false,
2022-01-05 21:07:07,365 INFO     ___FILE_ONLY___ 
    "is_hidden": false,
2022-01-05 21:07:07,365 INFO     ___FILE_ONLY___ 
    "latest_version_string": "1.4.0",
2022-01-05 21:07:07,365 INFO     ___FILE_ONLY___ 
    "name": "Cloud Spanner Emulator",
2022-01-05 21:07:07,365 INFO     ___FILE_ONLY___ 
    "platform": {
2022-01-05 21:07:07,365 INFO     ___FILE_ONLY___ 
      "architecture": {
2022-01-05 21:07:07,365 INFO     ___FILE_ONLY___ 
        "file_name": "x86_64",
2022-01-05 21:07:07,366 INFO     ___FILE_ONLY___ 
        "id": "x86_64",
2022-01-05 21:07:07,366 INFO     ___FILE_ONLY___ 
        "name": "x86_64"
2022-01-05 21:07:07,366 INFO     ___FILE_ONLY___ 
      },
2022-01-05 21:07:07,366 INFO     ___FILE_ONLY___ 
      "operating_system": {
2022-01-05 21:07:07,366 INFO     ___FILE_ONLY___ 
        "file_name": "linux",
2022-01-05 21:07:07,366 INFO     ___FILE_ONLY___ 
        "id": "LINUX",
2022-01-05 21:07:07,366 INFO     ___FILE_ONLY___ 
        "name": "Linux"
2022-01-05 21:07:07,366 INFO     ___FILE_ONLY___ 
      }
2022-01-05 21:07:07,366 INFO     ___FILE_ONLY___ 
    },
2022-01-05 21:07:07,366 INFO     ___FILE_ONLY___ 
    "platform_required": false,
2022-01-05 21:07:07,366 INFO     ___FILE_ONLY___ 
    "size": 23808558,
2022-01-05 21:07:07,367 INFO     ___FILE_ONLY___ 
    "state": {
2022-01-05 21:07:07,367 INFO     ___FILE_ONLY___ 
      "name": "Not Installed"
2022-01-05 21:07:07,367 INFO     ___FILE_ONLY___ 
    }
2022-01-05 21:07:07,367 INFO     ___FILE_ONLY___ 
  }
2022-01-05 21:07:07,368 INFO     ___FILE_ONLY___ ,
  {
2022-01-05 21:07:07,368 INFO     ___FILE_ONLY___ 
    "current_version_string": null,
2022-01-05 21:07:07,368 INFO     ___FILE_ONLY___ 
    "id": "cloud-build-local",
2022-01-05 21:07:07,368 INFO     ___FILE_ONLY___ 
    "is_configuration": false,
2022-01-05 21:07:07,368 INFO     ___FILE_ONLY___ 
    "is_hidden": false,
2022-01-05 21:07:07,368 INFO     ___FILE_ONLY___ 
    "latest_version_string": "0.5.2",
2022-01-05 21:07:07,368 INFO     ___FILE_ONLY___ 
    "name": "Google Cloud Build Local Builder",
2022-01-05 21:07:07,368 INFO     ___FILE_ONLY___ 
    "platform": {
2022-01-05 21:07:07,368 INFO     ___FILE_ONLY___ 
      "architecture": {
2022-01-05 21:07:07,368 INFO     ___FILE_ONLY___ 
        "file_name": "x86_64",
2022-01-05 21:07:07,368 INFO     ___FILE_ONLY___ 
        "id": "x86_64",
2022-01-05 21:07:07,368 INFO     ___FILE_ONLY___ 
        "name": "x86_64"
2022-01-05 21:07:07,368 INFO     ___FILE_ONLY___ 
      },
2022-01-05 21:07:07,368 INFO     ___FILE_ONLY___ 
      "operating_system": {
2022-01-05 21:07:07,368 INFO     ___FILE_ONLY___ 
        "file_name": "linux",
2022-01-05 21:07:07,368 INFO     ___FILE_ONLY___ 
        "id": "LINUX",
2022-01-05 21:07:07,369 INFO     ___FILE_ONLY___ 
        "name": "Linux"
2022-01-05 21:07:07,369 INFO     ___FILE_ONLY___ 
      }
2022-01-05 21:07:07,369 INFO     ___FILE_ONLY___ 
    },
2022-01-05 21:07:07,369 INFO     ___FILE_ONLY___ 
    "platform_required": false,
2022-01-05 21:07:07,369 INFO     ___FILE_ONLY___ 
    "size": 6591757,
2022-01-05 21:07:07,369 INFO     ___FILE_ONLY___ 
    "state": {
2022-01-05 21:07:07,369 INFO     ___FILE_ONLY___ 
      "name": "Not Installed"
2022-01-05 21:07:07,369 INFO     ___FILE_ONLY___ 
    }
2022-01-05 21:07:07,369 INFO     ___FILE_ONLY___ 
  }
2022-01-05 21:07:07,370 INFO     ___FILE_ONLY___ ,
  {
2022-01-05 21:07:07,370 INFO     ___FILE_ONLY___ 
    "current_version_string": null,
2022-01-05 21:07:07,370 INFO     ___FILE_ONLY___ 
    "id": "docker-credential-gcr",
2022-01-05 21:07:07,370 INFO     ___FILE_ONLY___ 
    "is_configuration": false,
2022-01-05 21:07:07,370 INFO     ___FILE_ONLY___ 
    "is_hidden": false,
2022-01-05 21:07:07,370 INFO     ___FILE_ONLY___ 
    "latest_version_string": "1.5.0",
2022-01-05 21:07:07,370 INFO     ___FILE_ONLY___ 
    "name": "Google Container Registry's Docker credential helper",
2022-01-05 21:07:07,370 INFO     ___FILE_ONLY___ 
    "platform": {
2022-01-05 21:07:07,370 INFO     ___FILE_ONLY___ 
      "architecture": {
2022-01-05 21:07:07,370 INFO     ___FILE_ONLY___ 
        "file_name": "x86_64",
2022-01-05 21:07:07,370 INFO     ___FILE_ONLY___ 
        "id": "x86_64",
2022-01-05 21:07:07,370 INFO     ___FILE_ONLY___ 
        "name": "x86_64"
2022-01-05 21:07:07,370 INFO     ___FILE_ONLY___ 
      },
2022-01-05 21:07:07,370 INFO     ___FILE_ONLY___ 
      "operating_system": {
2022-01-05 21:07:07,371 INFO     ___FILE_ONLY___ 
        "file_name": "linux",
2022-01-05 21:07:07,371 INFO     ___FILE_ONLY___ 
        "id": "LINUX",
2022-01-05 21:07:07,371 INFO     ___FILE_ONLY___ 
        "name": "Linux"
2022-01-05 21:07:07,371 INFO     ___FILE_ONLY___ 
      }
2022-01-05 21:07:07,371 INFO     ___FILE_ONLY___ 
    },
2022-01-05 21:07:07,371 INFO     ___FILE_ONLY___ 
    "platform_required": false,
2022-01-05 21:07:07,371 INFO     ___FILE_ONLY___ 
    "size": 1900431,
2022-01-05 21:07:07,371 INFO     ___FILE_ONLY___ 
    "state": {
2022-01-05 21:07:07,371 INFO     ___FILE_ONLY___ 
      "name": "Not Installed"
2022-01-05 21:07:07,371 INFO     ___FILE_ONLY___ 
    }
2022-01-05 21:07:07,371 INFO     ___FILE_ONLY___ 
  }
2022-01-05 21:07:07,371 INFO     ___FILE_ONLY___ ,
  {
2022-01-05 21:07:07,372 INFO     ___FILE_ONLY___ 
    "current_version_string": null,
2022-01-05 21:07:07,372 INFO     ___FILE_ONLY___ 
    "id": "kustomize",
2022-01-05 21:07:07,372 INFO     ___FILE_ONLY___ 
    "is_configuration": false,
2022-01-05 21:07:07,372 INFO     ___FILE_ONLY___ 
    "is_hidden": false,
2022-01-05 21:07:07,372 INFO     ___FILE_ONLY___ 
    "latest_version_string": "4.4.0",
2022-01-05 21:07:07,372 INFO     ___FILE_ONLY___ 
    "name": "Kustomize",
2022-01-05 21:07:07,372 INFO     ___FILE_ONLY___ 
    "platform": {
2022-01-05 21:07:07,372 INFO     ___FILE_ONLY___ 
      "architecture": {
2022-01-05 21:07:07,372 INFO     ___FILE_ONLY___ 
        "file_name": "x86_64",
2022-01-05 21:07:07,372 INFO     ___FILE_ONLY___ 
        "id": "x86_64",
2022-01-05 21:07:07,372 INFO     ___FILE_ONLY___ 
        "name": "x86_64"
2022-01-05 21:07:07,372 INFO     ___FILE_ONLY___ 
      },
2022-01-05 21:07:07,372 INFO     ___FILE_ONLY___ 
      "operating_system": {
2022-01-05 21:07:07,372 INFO     ___FILE_ONLY___ 
        "file_name": "linux",
2022-01-05 21:07:07,372 INFO     ___FILE_ONLY___ 
        "id": "LINUX",
2022-01-05 21:07:07,372 INFO     ___FILE_ONLY___ 
        "name": "Linux"
2022-01-05 21:07:07,372 INFO     ___FILE_ONLY___ 
      }
2022-01-05 21:07:07,373 INFO     ___FILE_ONLY___ 
    },
2022-01-05 21:07:07,373 INFO     ___FILE_ONLY___ 
    "platform_required": false,
2022-01-05 21:07:07,373 INFO     ___FILE_ONLY___ 
    "size": 4534871,
2022-01-05 21:07:07,373 INFO     ___FILE_ONLY___ 
    "state": {
2022-01-05 21:07:07,373 INFO     ___FILE_ONLY___ 
      "name": "Not Installed"
2022-01-05 21:07:07,373 INFO     ___FILE_ONLY___ 
    }
2022-01-05 21:07:07,373 INFO     ___FILE_ONLY___ 
  }
2022-01-05 21:07:07,373 INFO     ___FILE_ONLY___ ,
  {
2022-01-05 21:07:07,373 INFO     ___FILE_ONLY___ 
    "current_version_string": null,
2022-01-05 21:07:07,373 INFO     ___FILE_ONLY___ 
    "id": "minikube",
2022-01-05 21:07:07,374 INFO     ___FILE_ONLY___ 
    "is_configuration": false,
2022-01-05 21:07:07,374 INFO     ___FILE_ONLY___ 
    "is_hidden": false,
2022-01-05 21:07:07,374 INFO     ___FILE_ONLY___ 
    "latest_version_string": "1.24.0",
2022-01-05 21:07:07,374 INFO     ___FILE_ONLY___ 
    "name": "Minikube",
2022-01-05 21:07:07,374 INFO     ___FILE_ONLY___ 
    "platform": {
2022-01-05 21:07:07,374 INFO     ___FILE_ONLY___ 
      "architecture": {
2022-01-05 21:07:07,374 INFO     ___FILE_ONLY___ 
        "file_name": "x86_64",
2022-01-05 21:07:07,374 INFO     ___FILE_ONLY___ 
        "id": "x86_64",
2022-01-05 21:07:07,374 INFO     ___FILE_ONLY___ 
        "name": "x86_64"
2022-01-05 21:07:07,374 INFO     ___FILE_ONLY___ 
      },
2022-01-05 21:07:07,374 INFO     ___FILE_ONLY___ 
      "operating_system": {
2022-01-05 21:07:07,374 INFO     ___FILE_ONLY___ 
        "file_name": "linux",
2022-01-05 21:07:07,374 INFO     ___FILE_ONLY___ 
        "id": "LINUX",
2022-01-05 21:07:07,374 INFO     ___FILE_ONLY___ 
        "name": "Linux"
2022-01-05 21:07:07,374 INFO     ___FILE_ONLY___ 
      }
2022-01-05 21:07:07,374 INFO     ___FILE_ONLY___ 
    },
2022-01-05 21:07:07,374 INFO     ___FILE_ONLY___ 
    "platform_required": false,
2022-01-05 21:07:07,374 INFO     ___FILE_ONLY___ 
    "size": 28378479,
2022-01-05 21:07:07,375 INFO     ___FILE_ONLY___ 
    "state": {
2022-01-05 21:07:07,375 INFO     ___FILE_ONLY___ 
      "name": "Not Installed"
2022-01-05 21:07:07,375 INFO     ___FILE_ONLY___ 
    }
2022-01-05 21:07:07,375 INFO     ___FILE_ONLY___ 
  }
2022-01-05 21:07:07,375 INFO     ___FILE_ONLY___ ,
  {
2022-01-05 21:07:07,375 INFO     ___FILE_ONLY___ 
    "current_version_string": null,
2022-01-05 21:07:07,375 INFO     ___FILE_ONLY___ 
    "id": "nomos",
2022-01-05 21:07:07,375 INFO     ___FILE_ONLY___ 
    "is_configuration": false,
2022-01-05 21:07:07,376 INFO     ___FILE_ONLY___ 
    "is_hidden": false,
2022-01-05 21:07:07,376 INFO     ___FILE_ONLY___ 
    "latest_version_string": "1.9.1-rc.3",
2022-01-05 21:07:07,376 INFO     ___FILE_ONLY___ 
    "name": "Nomos CLI",
2022-01-05 21:07:07,376 INFO     ___FILE_ONLY___ 
    "platform": {
2022-01-05 21:07:07,376 INFO     ___FILE_ONLY___ 
      "architecture": {
2022-01-05 21:07:07,376 INFO     ___FILE_ONLY___ 
        "file_name": "x86_64",
2022-01-05 21:07:07,376 INFO     ___FILE_ONLY___ 
        "id": "x86_64",
2022-01-05 21:07:07,376 INFO     ___FILE_ONLY___ 
        "name": "x86_64"
2022-01-05 21:07:07,376 INFO     ___FILE_ONLY___ 
      },
2022-01-05 21:07:07,376 INFO     ___FILE_ONLY___ 
      "operating_system": {
2022-01-05 21:07:07,376 INFO     ___FILE_ONLY___ 
        "file_name": "linux",
2022-01-05 21:07:07,376 INFO     ___FILE_ONLY___ 
        "id": "LINUX",
2022-01-05 21:07:07,377 INFO     ___FILE_ONLY___ 
        "name": "Linux"
2022-01-05 21:07:07,377 INFO     ___FILE_ONLY___ 
      }
2022-01-05 21:07:07,377 INFO     ___FILE_ONLY___ 
    },
2022-01-05 21:07:07,377 INFO     ___FILE_ONLY___ 
    "platform_required": false,
2022-01-05 21:07:07,377 INFO     ___FILE_ONLY___ 
    "size": 26961199,
2022-01-05 21:07:07,377 INFO     ___FILE_ONLY___ 
    "state": {
2022-01-05 21:07:07,377 INFO     ___FILE_ONLY___ 
      "name": "Not Installed"
2022-01-05 21:07:07,377 INFO     ___FILE_ONLY___ 
    }
2022-01-05 21:07:07,377 INFO     ___FILE_ONLY___ 
  }
2022-01-05 21:07:07,378 INFO     ___FILE_ONLY___ ,
  {
2022-01-05 21:07:07,378 INFO     ___FILE_ONLY___ 
    "current_version_string": null,
2022-01-05 21:07:07,378 INFO     ___FILE_ONLY___ 
    "id": "local-extract",
2022-01-05 21:07:07,379 INFO     ___FILE_ONLY___ 
    "is_configuration": false,
2022-01-05 21:07:07,379 INFO     ___FILE_ONLY___ 
    "is_hidden": false,
2022-01-05 21:07:07,379 INFO     ___FILE_ONLY___ 
    "latest_version_string": "1.3.1",
2022-01-05 21:07:07,379 INFO     ___FILE_ONLY___ 
    "name": "On-Demand Scanning API extraction helper",
2022-01-05 21:07:07,379 INFO     ___FILE_ONLY___ 
    "platform": {
2022-01-05 21:07:07,379 INFO     ___FILE_ONLY___ 
      "architecture": {
2022-01-05 21:07:07,379 INFO     ___FILE_ONLY___ 
        "file_name": "x86_64",
2022-01-05 21:07:07,379 INFO     ___FILE_ONLY___ 
        "id": "x86_64",
2022-01-05 21:07:07,379 INFO     ___FILE_ONLY___ 
        "name": "x86_64"
2022-01-05 21:07:07,379 INFO     ___FILE_ONLY___ 
      },
2022-01-05 21:07:07,379 INFO     ___FILE_ONLY___ 
      "operating_system": {
2022-01-05 21:07:07,380 INFO     ___FILE_ONLY___ 
        "file_name": "linux",
2022-01-05 21:07:07,380 INFO     ___FILE_ONLY___ 
        "id": "LINUX",
2022-01-05 21:07:07,380 INFO     ___FILE_ONLY___ 
        "name": "Linux"
2022-01-05 21:07:07,380 INFO     ___FILE_ONLY___ 
      }
2022-01-05 21:07:07,380 INFO     ___FILE_ONLY___ 
    },
2022-01-05 21:07:07,380 INFO     ___FILE_ONLY___ 
    "platform_required": false,
2022-01-05 21:07:07,380 INFO     ___FILE_ONLY___ 
    "size": 15390005,
2022-01-05 21:07:07,380 INFO     ___FILE_ONLY___ 
    "state": {
2022-01-05 21:07:07,380 INFO     ___FILE_ONLY___ 
      "name": "Not Installed"
2022-01-05 21:07:07,380 INFO     ___FILE_ONLY___ 
    }
2022-01-05 21:07:07,380 INFO     ___FILE_ONLY___ 
  }
2022-01-05 21:07:07,381 INFO     ___FILE_ONLY___ ,
  {
2022-01-05 21:07:07,381 INFO     ___FILE_ONLY___ 
    "current_version_string": null,
2022-01-05 21:07:07,382 INFO     ___FILE_ONLY___ 
    "id": "skaffold",
2022-01-05 21:07:07,382 INFO     ___FILE_ONLY___ 
    "is_configuration": false,
2022-01-05 21:07:07,382 INFO     ___FILE_ONLY___ 
    "is_hidden": false,
2022-01-05 21:07:07,382 INFO     ___FILE_ONLY___ 
    "latest_version_string": "1.34.0",
2022-01-05 21:07:07,382 INFO     ___FILE_ONLY___ 
    "name": "Skaffold",
2022-01-05 21:07:07,382 INFO     ___FILE_ONLY___ 
    "platform": {
2022-01-05 21:07:07,382 INFO     ___FILE_ONLY___ 
      "architecture": {
2022-01-05 21:07:07,382 INFO     ___FILE_ONLY___ 
        "file_name": "x86_64",
2022-01-05 21:07:07,382 INFO     ___FILE_ONLY___ 
        "id": "x86_64",
2022-01-05 21:07:07,382 INFO     ___FILE_ONLY___ 
        "name": "x86_64"
2022-01-05 21:07:07,383 INFO     ___FILE_ONLY___ 
      },
2022-01-05 21:07:07,383 INFO     ___FILE_ONLY___ 
      "operating_system": {
2022-01-05 21:07:07,383 INFO     ___FILE_ONLY___ 
        "file_name": "linux",
2022-01-05 21:07:07,383 INFO     ___FILE_ONLY___ 
        "id": "LINUX",
2022-01-05 21:07:07,383 INFO     ___FILE_ONLY___ 
        "name": "Linux"
2022-01-05 21:07:07,383 INFO     ___FILE_ONLY___ 
      }
2022-01-05 21:07:07,383 INFO     ___FILE_ONLY___ 
    },
2022-01-05 21:07:07,383 INFO     ___FILE_ONLY___ 
    "platform_required": false,
2022-01-05 21:07:07,383 INFO     ___FILE_ONLY___ 
    "size": 19990578,
2022-01-05 21:07:07,383 INFO     ___FILE_ONLY___ 
    "state": {
2022-01-05 21:07:07,383 INFO     ___FILE_ONLY___ 
      "name": "Not Installed"
2022-01-05 21:07:07,384 INFO     ___FILE_ONLY___ 
    }
2022-01-05 21:07:07,384 INFO     ___FILE_ONLY___ 
  }
2022-01-05 21:07:07,384 INFO     ___FILE_ONLY___ ,
  {
2022-01-05 21:07:07,385 INFO     ___FILE_ONLY___ 
    "current_version_string": null,
2022-01-05 21:07:07,385 INFO     ___FILE_ONLY___ 
    "id": "anthos-auth",
2022-01-05 21:07:07,385 INFO     ___FILE_ONLY___ 
    "is_configuration": false,
2022-01-05 21:07:07,385 INFO     ___FILE_ONLY___ 
    "is_hidden": false,
2022-01-05 21:07:07,385 INFO     ___FILE_ONLY___ 
    "latest_version_string": "1.3.0",
2022-01-05 21:07:07,385 INFO     ___FILE_ONLY___ 
    "name": "anthos-auth",
2022-01-05 21:07:07,385 INFO     ___FILE_ONLY___ 
    "platform": {
2022-01-05 21:07:07,385 INFO     ___FILE_ONLY___ 
      "architecture": {
2022-01-05 21:07:07,385 INFO     ___FILE_ONLY___ 
        "file_name": "x86_64",
2022-01-05 21:07:07,385 INFO     ___FILE_ONLY___ 
        "id": "x86_64",
2022-01-05 21:07:07,385 INFO     ___FILE_ONLY___ 
        "name": "x86_64"
2022-01-05 21:07:07,386 INFO     ___FILE_ONLY___ 
      },
2022-01-05 21:07:07,386 INFO     ___FILE_ONLY___ 
      "operating_system": {
2022-01-05 21:07:07,386 INFO     ___FILE_ONLY___ 
        "file_name": "linux",
2022-01-05 21:07:07,386 INFO     ___FILE_ONLY___ 
        "id": "LINUX",
2022-01-05 21:07:07,386 INFO     ___FILE_ONLY___ 
        "name": "Linux"
2022-01-05 21:07:07,386 INFO     ___FILE_ONLY___ 
      }
2022-01-05 21:07:07,386 INFO     ___FILE_ONLY___ 
    },
2022-01-05 21:07:07,386 INFO     ___FILE_ONLY___ 
    "platform_required": false,
2022-01-05 21:07:07,386 INFO     ___FILE_ONLY___ 
    "size": 19041936,
2022-01-05 21:07:07,386 INFO     ___FILE_ONLY___ 
    "state": {
2022-01-05 21:07:07,386 INFO     ___FILE_ONLY___ 
      "name": "Not Installed"
2022-01-05 21:07:07,386 INFO     ___FILE_ONLY___ 
    }
2022-01-05 21:07:07,386 INFO     ___FILE_ONLY___ 
  }
2022-01-05 21:07:07,387 INFO     ___FILE_ONLY___ ,
  {
2022-01-05 21:07:07,387 INFO     ___FILE_ONLY___ 
    "current_version_string": null,
2022-01-05 21:07:07,387 INFO     ___FILE_ONLY___ 
    "id": "config-connector",
2022-01-05 21:07:07,387 INFO     ___FILE_ONLY___ 
    "is_configuration": false,
2022-01-05 21:07:07,388 INFO     ___FILE_ONLY___ 
    "is_hidden": false,
2022-01-05 21:07:07,388 INFO     ___FILE_ONLY___ 
    "latest_version_string": "1.68.0",
2022-01-05 21:07:07,388 INFO     ___FILE_ONLY___ 
    "name": "config-connector",
2022-01-05 21:07:07,388 INFO     ___FILE_ONLY___ 
    "platform": {
2022-01-05 21:07:07,388 INFO     ___FILE_ONLY___ 
      "architecture": {
2022-01-05 21:07:07,388 INFO     ___FILE_ONLY___ 
        "file_name": "x86_64",
2022-01-05 21:07:07,388 INFO     ___FILE_ONLY___ 
        "id": "x86_64",
2022-01-05 21:07:07,388 INFO     ___FILE_ONLY___ 
        "name": "x86_64"
2022-01-05 21:07:07,388 INFO     ___FILE_ONLY___ 
      },
2022-01-05 21:07:07,388 INFO     ___FILE_ONLY___ 
      "operating_system": {
2022-01-05 21:07:07,388 INFO     ___FILE_ONLY___ 
        "file_name": "linux",
2022-01-05 21:07:07,389 INFO     ___FILE_ONLY___ 
        "id": "LINUX",
2022-01-05 21:07:07,389 INFO     ___FILE_ONLY___ 
        "name": "Linux"
2022-01-05 21:07:07,389 INFO     ___FILE_ONLY___ 
      }
2022-01-05 21:07:07,389 INFO     ___FILE_ONLY___ 
    },
2022-01-05 21:07:07,389 INFO     ___FILE_ONLY___ 
    "platform_required": false,
2022-01-05 21:07:07,389 INFO     ___FILE_ONLY___ 
    "size": 50886364,
2022-01-05 21:07:07,389 INFO     ___FILE_ONLY___ 
    "state": {
2022-01-05 21:07:07,389 INFO     ___FILE_ONLY___ 
      "name": "Not Installed"
2022-01-05 21:07:07,389 INFO     ___FILE_ONLY___ 
    }
2022-01-05 21:07:07,389 INFO     ___FILE_ONLY___ 
  }
2022-01-05 21:07:07,390 INFO     ___FILE_ONLY___ ,
  {
2022-01-05 21:07:07,390 INFO     ___FILE_ONLY___ 
    "current_version_string": null,
2022-01-05 21:07:07,390 INFO     ___FILE_ONLY___ 
    "id": "alpha",
2022-01-05 21:07:07,390 INFO     ___FILE_ONLY___ 
    "is_configuration": false,
2022-01-05 21:07:07,390 INFO     ___FILE_ONLY___ 
    "is_hidden": false,
2022-01-05 21:07:07,390 INFO     ___FILE_ONLY___ 
    "latest_version_string": "2021.12.10",
2022-01-05 21:07:07,391 INFO     ___FILE_ONLY___ 
    "name": "gcloud Alpha Commands",
2022-01-05 21:07:07,391 INFO     ___FILE_ONLY___ 
    "platform": {
2022-01-05 21:07:07,391 INFO     ___FILE_ONLY___ 
      "architecture": {
2022-01-05 21:07:07,391 INFO     ___FILE_ONLY___ 
        "file_name": "x86_64",
2022-01-05 21:07:07,391 INFO     ___FILE_ONLY___ 
        "id": "x86_64",
2022-01-05 21:07:07,391 INFO     ___FILE_ONLY___ 
        "name": "x86_64"
2022-01-05 21:07:07,391 INFO     ___FILE_ONLY___ 
      },
2022-01-05 21:07:07,391 INFO     ___FILE_ONLY___ 
      "operating_system": {
2022-01-05 21:07:07,391 INFO     ___FILE_ONLY___ 
        "file_name": "linux",
2022-01-05 21:07:07,391 INFO     ___FILE_ONLY___ 
        "id": "LINUX",
2022-01-05 21:07:07,391 INFO     ___FILE_ONLY___ 
        "name": "Linux"
2022-01-05 21:07:07,391 INFO     ___FILE_ONLY___ 
      }
2022-01-05 21:07:07,391 INFO     ___FILE_ONLY___ 
    },
2022-01-05 21:07:07,392 INFO     ___FILE_ONLY___ 
    "platform_required": false,
2022-01-05 21:07:07,392 INFO     ___FILE_ONLY___ 
    "size": 750,
2022-01-05 21:07:07,392 INFO     ___FILE_ONLY___ 
    "state": {
2022-01-05 21:07:07,392 INFO     ___FILE_ONLY___ 
      "name": "Not Installed"
2022-01-05 21:07:07,392 INFO     ___FILE_ONLY___ 
    }
2022-01-05 21:07:07,392 INFO     ___FILE_ONLY___ 
  }
2022-01-05 21:07:07,392 INFO     ___FILE_ONLY___ ,
  {
2022-01-05 21:07:07,393 INFO     ___FILE_ONLY___ 
    "current_version_string": null,
2022-01-05 21:07:07,393 INFO     ___FILE_ONLY___ 
    "id": "beta",
2022-01-05 21:07:07,393 INFO     ___FILE_ONLY___ 
    "is_configuration": false,
2022-01-05 21:07:07,393 INFO     ___FILE_ONLY___ 
    "is_hidden": false,
2022-01-05 21:07:07,393 INFO     ___FILE_ONLY___ 
    "latest_version_string": "2021.12.10",
2022-01-05 21:07:07,393 INFO     ___FILE_ONLY___ 
    "name": "gcloud Beta Commands",
2022-01-05 21:07:07,393 INFO     ___FILE_ONLY___ 
    "platform": {
2022-01-05 21:07:07,393 INFO     ___FILE_ONLY___ 
      "architecture": {
2022-01-05 21:07:07,393 INFO     ___FILE_ONLY___ 
        "file_name": "x86_64",
2022-01-05 21:07:07,393 INFO     ___FILE_ONLY___ 
        "id": "x86_64",
2022-01-05 21:07:07,393 INFO     ___FILE_ONLY___ 
        "name": "x86_64"
2022-01-05 21:07:07,393 INFO     ___FILE_ONLY___ 
      },
2022-01-05 21:07:07,393 INFO     ___FILE_ONLY___ 
      "operating_system": {
2022-01-05 21:07:07,393 INFO     ___FILE_ONLY___ 
        "file_name": "linux",
2022-01-05 21:07:07,393 INFO     ___FILE_ONLY___ 
        "id": "LINUX",
2022-01-05 21:07:07,394 INFO     ___FILE_ONLY___ 
        "name": "Linux"
2022-01-05 21:07:07,394 INFO     ___FILE_ONLY___ 
      }
2022-01-05 21:07:07,394 INFO     ___FILE_ONLY___ 
    },
2022-01-05 21:07:07,394 INFO     ___FILE_ONLY___ 
    "platform_required": false,
2022-01-05 21:07:07,394 INFO     ___FILE_ONLY___ 
    "size": 746,
2022-01-05 21:07:07,394 INFO     ___FILE_ONLY___ 
    "state": {
2022-01-05 21:07:07,394 INFO     ___FILE_ONLY___ 
      "name": "Not Installed"
2022-01-05 21:07:07,394 INFO     ___FILE_ONLY___ 
    }
2022-01-05 21:07:07,394 INFO     ___FILE_ONLY___ 
  }
2022-01-05 21:07:07,395 INFO     ___FILE_ONLY___ ,
  {
2022-01-05 21:07:07,395 INFO     ___FILE_ONLY___ 
    "current_version_string": null,
2022-01-05 21:07:07,395 INFO     ___FILE_ONLY___ 
    "id": "app-engine-java",
2022-01-05 21:07:07,395 INFO     ___FILE_ONLY___ 
    "is_configuration": false,
2022-01-05 21:07:07,395 INFO     ___FILE_ONLY___ 
    "is_hidden": false,
2022-01-05 21:07:07,395 INFO     ___FILE_ONLY___ 
    "latest_version_string": "1.9.93",
2022-01-05 21:07:07,395 INFO     ___FILE_ONLY___ 
    "name": "gcloud app Java Extensions",
2022-01-05 21:07:07,396 INFO     ___FILE_ONLY___ 
    "platform": {
2022-01-05 21:07:07,396 INFO     ___FILE_ONLY___ 
      "architecture": {
2022-01-05 21:07:07,396 INFO     ___FILE_ONLY___ 
        "file_name": "x86_64",
2022-01-05 21:07:07,396 INFO     ___FILE_ONLY___ 
        "id": "x86_64",
2022-01-05 21:07:07,396 INFO     ___FILE_ONLY___ 
        "name": "x86_64"
2022-01-05 21:07:07,396 INFO     ___FILE_ONLY___ 
      },
2022-01-05 21:07:07,396 INFO     ___FILE_ONLY___ 
      "operating_system": {
2022-01-05 21:07:07,396 INFO     ___FILE_ONLY___ 
        "file_name": "linux",
2022-01-05 21:07:07,396 INFO     ___FILE_ONLY___ 
        "id": "LINUX",
2022-01-05 21:07:07,396 INFO     ___FILE_ONLY___ 
        "name": "Linux"
2022-01-05 21:07:07,396 INFO     ___FILE_ONLY___ 
      }
2022-01-05 21:07:07,396 INFO     ___FILE_ONLY___ 
    },
2022-01-05 21:07:07,396 INFO     ___FILE_ONLY___ 
    "platform_required": false,
2022-01-05 21:07:07,396 INFO     ___FILE_ONLY___ 
    "size": 54214739,
2022-01-05 21:07:07,397 INFO     ___FILE_ONLY___ 
    "state": {
2022-01-05 21:07:07,397 INFO     ___FILE_ONLY___ 
      "name": "Not Installed"
2022-01-05 21:07:07,397 INFO     ___FILE_ONLY___ 
    }
2022-01-05 21:07:07,397 INFO     ___FILE_ONLY___ 
  }
2022-01-05 21:07:07,397 INFO     ___FILE_ONLY___ ,
  {
2022-01-05 21:07:07,397 INFO     ___FILE_ONLY___ 
    "current_version_string": null,
2022-01-05 21:07:07,397 INFO     ___FILE_ONLY___ 
    "id": "app-engine-python",
2022-01-05 21:07:07,397 INFO     ___FILE_ONLY___ 
    "is_configuration": false,
2022-01-05 21:07:07,398 INFO     ___FILE_ONLY___ 
    "is_hidden": false,
2022-01-05 21:07:07,398 INFO     ___FILE_ONLY___ 
    "latest_version_string": "1.9.98",
2022-01-05 21:07:07,398 INFO     ___FILE_ONLY___ 
    "name": "gcloud app Python Extensions",
2022-01-05 21:07:07,398 INFO     ___FILE_ONLY___ 
    "platform": {
2022-01-05 21:07:07,398 INFO     ___FILE_ONLY___ 
      "architecture": {
2022-01-05 21:07:07,398 INFO     ___FILE_ONLY___ 
        "file_name": "x86_64",
2022-01-05 21:07:07,398 INFO     ___FILE_ONLY___ 
        "id": "x86_64",
2022-01-05 21:07:07,398 INFO     ___FILE_ONLY___ 
        "name": "x86_64"
2022-01-05 21:07:07,398 INFO     ___FILE_ONLY___ 
      },
2022-01-05 21:07:07,398 INFO     ___FILE_ONLY___ 
      "operating_system": {
2022-01-05 21:07:07,398 INFO     ___FILE_ONLY___ 
        "file_name": "linux",
2022-01-05 21:07:07,398 INFO     ___FILE_ONLY___ 
        "id": "LINUX",
2022-01-05 21:07:07,398 INFO     ___FILE_ONLY___ 
        "name": "Linux"
2022-01-05 21:07:07,398 INFO     ___FILE_ONLY___ 
      }
2022-01-05 21:07:07,398 INFO     ___FILE_ONLY___ 
    },
2022-01-05 21:07:07,398 INFO     ___FILE_ONLY___ 
    "platform_required": false,
2022-01-05 21:07:07,398 INFO     ___FILE_ONLY___ 
    "size": 8161142,
2022-01-05 21:07:07,399 INFO     ___FILE_ONLY___ 
    "state": {
2022-01-05 21:07:07,399 INFO     ___FILE_ONLY___ 
      "name": "Not Installed"
2022-01-05 21:07:07,399 INFO     ___FILE_ONLY___ 
    }
2022-01-05 21:07:07,399 INFO     ___FILE_ONLY___ 
  }
2022-01-05 21:07:07,399 INFO     ___FILE_ONLY___ ,
  {
2022-01-05 21:07:07,399 INFO     ___FILE_ONLY___ 
    "current_version_string": null,
2022-01-05 21:07:07,399 INFO     ___FILE_ONLY___ 
    "id": "app-engine-python-extras",
2022-01-05 21:07:07,400 INFO     ___FILE_ONLY___ 
    "is_configuration": false,
2022-01-05 21:07:07,400 INFO     ___FILE_ONLY___ 
    "is_hidden": false,
2022-01-05 21:07:07,400 INFO     ___FILE_ONLY___ 
    "latest_version_string": "1.9.96",
2022-01-05 21:07:07,400 INFO     ___FILE_ONLY___ 
    "name": "gcloud app Python Extensions (Extra Libraries)",
2022-01-05 21:07:07,400 INFO     ___FILE_ONLY___ 
    "platform": {
2022-01-05 21:07:07,400 INFO     ___FILE_ONLY___ 
      "architecture": {
2022-01-05 21:07:07,400 INFO     ___FILE_ONLY___ 
        "file_name": "x86_64",
2022-01-05 21:07:07,400 INFO     ___FILE_ONLY___ 
        "id": "x86_64",
2022-01-05 21:07:07,400 INFO     ___FILE_ONLY___ 
        "name": "x86_64"
2022-01-05 21:07:07,400 INFO     ___FILE_ONLY___ 
      },
2022-01-05 21:07:07,400 INFO     ___FILE_ONLY___ 
      "operating_system": {
2022-01-05 21:07:07,400 INFO     ___FILE_ONLY___ 
        "file_name": "linux",
2022-01-05 21:07:07,400 INFO     ___FILE_ONLY___ 
        "id": "LINUX",
2022-01-05 21:07:07,400 INFO     ___FILE_ONLY___ 
        "name": "Linux"
2022-01-05 21:07:07,401 INFO     ___FILE_ONLY___ 
      }
2022-01-05 21:07:07,401 INFO     ___FILE_ONLY___ 
    },
2022-01-05 21:07:07,401 INFO     ___FILE_ONLY___ 
    "platform_required": false,
2022-01-05 21:07:07,401 INFO     ___FILE_ONLY___ 
    "size": 27709995,
2022-01-05 21:07:07,401 INFO     ___FILE_ONLY___ 
    "state": {
2022-01-05 21:07:07,401 INFO     ___FILE_ONLY___ 
      "name": "Not Installed"
2022-01-05 21:07:07,401 INFO     ___FILE_ONLY___ 
    }
2022-01-05 21:07:07,401 INFO     ___FILE_ONLY___ 
  }
2022-01-05 21:07:07,401 INFO     ___FILE_ONLY___ ,
  {
2022-01-05 21:07:07,402 INFO     ___FILE_ONLY___ 
    "current_version_string": null,
2022-01-05 21:07:07,402 INFO     ___FILE_ONLY___ 
    "id": "kpt",
2022-01-05 21:07:07,402 INFO     ___FILE_ONLY___ 
    "is_configuration": false,
2022-01-05 21:07:07,402 INFO     ___FILE_ONLY___ 
    "is_hidden": false,
2022-01-05 21:07:07,402 INFO     ___FILE_ONLY___ 
    "latest_version_string": "1.0.0-beta.9",
2022-01-05 21:07:07,402 INFO     ___FILE_ONLY___ 
    "name": "kpt",
2022-01-05 21:07:07,402 INFO     ___FILE_ONLY___ 
    "platform": {
2022-01-05 21:07:07,402 INFO     ___FILE_ONLY___ 
      "architecture": {
2022-01-05 21:07:07,402 INFO     ___FILE_ONLY___ 
        "file_name": "x86_64",
2022-01-05 21:07:07,402 INFO     ___FILE_ONLY___ 
        "id": "x86_64",
2022-01-05 21:07:07,402 INFO     ___FILE_ONLY___ 
        "name": "x86_64"
2022-01-05 21:07:07,402 INFO     ___FILE_ONLY___ 
      },
2022-01-05 21:07:07,402 INFO     ___FILE_ONLY___ 
      "operating_system": {
2022-01-05 21:07:07,402 INFO     ___FILE_ONLY___ 
        "file_name": "linux",
2022-01-05 21:07:07,403 INFO     ___FILE_ONLY___ 
        "id": "LINUX",
2022-01-05 21:07:07,403 INFO     ___FILE_ONLY___ 
        "name": "Linux"
2022-01-05 21:07:07,403 INFO     ___FILE_ONLY___ 
      }
2022-01-05 21:07:07,403 INFO     ___FILE_ONLY___ 
    },
2022-01-05 21:07:07,403 INFO     ___FILE_ONLY___ 
    "platform_required": false,
2022-01-05 21:07:07,403 INFO     ___FILE_ONLY___ 
    "size": 12165197,
2022-01-05 21:07:07,403 INFO     ___FILE_ONLY___ 
    "state": {
2022-01-05 21:07:07,403 INFO     ___FILE_ONLY___ 
      "name": "Not Installed"
2022-01-05 21:07:07,403 INFO     ___FILE_ONLY___ 
    }
2022-01-05 21:07:07,403 INFO     ___FILE_ONLY___ 
  }
2022-01-05 21:07:07,404 INFO     ___FILE_ONLY___ ,
  {
2022-01-05 21:07:07,404 INFO     ___FILE_ONLY___ 
    "current_version_string": null,
2022-01-05 21:07:07,404 INFO     ___FILE_ONLY___ 
    "id": "kubectl",
2022-01-05 21:07:07,404 INFO     ___FILE_ONLY___ 
    "is_configuration": false,
2022-01-05 21:07:07,404 INFO     ___FILE_ONLY___ 
    "is_hidden": false,
2022-01-05 21:07:07,404 INFO     ___FILE_ONLY___ 
    "latest_version_string": "1.20.8",
2022-01-05 21:07:07,404 INFO     ___FILE_ONLY___ 
    "name": "kubectl",
2022-01-05 21:07:07,404 INFO     ___FILE_ONLY___ 
    "platform": {
2022-01-05 21:07:07,404 INFO     ___FILE_ONLY___ 
      "architecture": {
2022-01-05 21:07:07,404 INFO     ___FILE_ONLY___ 
        "file_name": "x86_64",
2022-01-05 21:07:07,404 INFO     ___FILE_ONLY___ 
        "id": "x86_64",
2022-01-05 21:07:07,404 INFO     ___FILE_ONLY___ 
        "name": "x86_64"
2022-01-05 21:07:07,404 INFO     ___FILE_ONLY___ 
      },
2022-01-05 21:07:07,404 INFO     ___FILE_ONLY___ 
      "operating_system": {
2022-01-05 21:07:07,404 INFO     ___FILE_ONLY___ 
        "file_name": "linux",
2022-01-05 21:07:07,405 INFO     ___FILE_ONLY___ 
        "id": "LINUX",
2022-01-05 21:07:07,405 INFO     ___FILE_ONLY___ 
        "name": "Linux"
2022-01-05 21:07:07,405 INFO     ___FILE_ONLY___ 
      }
2022-01-05 21:07:07,405 INFO     ___FILE_ONLY___ 
    },
2022-01-05 21:07:07,405 INFO     ___FILE_ONLY___ 
    "platform_required": true,
2022-01-05 21:07:07,405 INFO     ___FILE_ONLY___ 
    "size": 46993,
2022-01-05 21:07:07,405 INFO     ___FILE_ONLY___ 
    "state": {
2022-01-05 21:07:07,405 INFO     ___FILE_ONLY___ 
      "name": "Not Installed"
2022-01-05 21:07:07,405 INFO     ___FILE_ONLY___ 
    }
2022-01-05 21:07:07,405 INFO     ___FILE_ONLY___ 
  }
2022-01-05 21:07:07,405 INFO     ___FILE_ONLY___ ,
  {
2022-01-05 21:07:07,406 INFO     ___FILE_ONLY___ 
    "current_version_string": null,
2022-01-05 21:07:07,406 INFO     ___FILE_ONLY___ 
    "id": "kubectl-oidc",
2022-01-05 21:07:07,406 INFO     ___FILE_ONLY___ 
    "is_configuration": false,
2022-01-05 21:07:07,406 INFO     ___FILE_ONLY___ 
    "is_hidden": false,
2022-01-05 21:07:07,406 INFO     ___FILE_ONLY___ 
    "latest_version_string": "1.3.0",
2022-01-05 21:07:07,406 INFO     ___FILE_ONLY___ 
    "name": "kubectl-oidc",
2022-01-05 21:07:07,406 INFO     ___FILE_ONLY___ 
    "platform": {
2022-01-05 21:07:07,406 INFO     ___FILE_ONLY___ 
      "architecture": {
2022-01-05 21:07:07,406 INFO     ___FILE_ONLY___ 
        "file_name": "x86_64",
2022-01-05 21:07:07,406 INFO     ___FILE_ONLY___ 
        "id": "x86_64",
2022-01-05 21:07:07,406 INFO     ___FILE_ONLY___ 
        "name": "x86_64"
2022-01-05 21:07:07,406 INFO     ___FILE_ONLY___ 
      },
2022-01-05 21:07:07,406 INFO     ___FILE_ONLY___ 
      "operating_system": {
2022-01-05 21:07:07,406 INFO     ___FILE_ONLY___ 
        "file_name": "linux",
2022-01-05 21:07:07,407 INFO     ___FILE_ONLY___ 
        "id": "LINUX",
2022-01-05 21:07:07,407 INFO     ___FILE_ONLY___ 
        "name": "Linux"
2022-01-05 21:07:07,407 INFO     ___FILE_ONLY___ 
      }
2022-01-05 21:07:07,407 INFO     ___FILE_ONLY___ 
    },
2022-01-05 21:07:07,407 INFO     ___FILE_ONLY___ 
    "platform_required": false,
2022-01-05 21:07:07,407 INFO     ___FILE_ONLY___ 
    "size": 19041939,
2022-01-05 21:07:07,407 INFO     ___FILE_ONLY___ 
    "state": {
2022-01-05 21:07:07,407 INFO     ___FILE_ONLY___ 
      "name": "Not Installed"
2022-01-05 21:07:07,407 INFO     ___FILE_ONLY___ 
    }
2022-01-05 21:07:07,407 INFO     ___FILE_ONLY___ 
  }
2022-01-05 21:07:07,408 INFO     ___FILE_ONLY___ ,
  {
2022-01-05 21:07:07,408 INFO     ___FILE_ONLY___ 
    "current_version_string": null,
2022-01-05 21:07:07,408 INFO     ___FILE_ONLY___ 
    "id": "pkg",
2022-01-05 21:07:07,408 INFO     ___FILE_ONLY___ 
    "is_configuration": false,
2022-01-05 21:07:07,408 INFO     ___FILE_ONLY___ 
    "is_hidden": false,
2022-01-05 21:07:07,408 INFO     ___FILE_ONLY___ 
    "latest_version_string": "",
2022-01-05 21:07:07,408 INFO     ___FILE_ONLY___ 
    "name": "pkg",
2022-01-05 21:07:07,409 INFO     ___FILE_ONLY___ 
    "platform": {
2022-01-05 21:07:07,409 INFO     ___FILE_ONLY___ 
      "architecture": {
2022-01-05 21:07:07,409 INFO     ___FILE_ONLY___ 
        "file_name": "x86_64",
2022-01-05 21:07:07,409 INFO     ___FILE_ONLY___ 
        "id": "x86_64",
2022-01-05 21:07:07,409 INFO     ___FILE_ONLY___ 
        "name": "x86_64"
2022-01-05 21:07:07,409 INFO     ___FILE_ONLY___ 
      },
2022-01-05 21:07:07,409 INFO     ___FILE_ONLY___ 
      "operating_system": {
2022-01-05 21:07:07,409 INFO     ___FILE_ONLY___ 
        "file_name": "linux",
2022-01-05 21:07:07,409 INFO     ___FILE_ONLY___ 
        "id": "LINUX",
2022-01-05 21:07:07,409 INFO     ___FILE_ONLY___ 
        "name": "Linux"
2022-01-05 21:07:07,409 INFO     ___FILE_ONLY___ 
      }
2022-01-05 21:07:07,409 INFO     ___FILE_ONLY___ 
    },
2022-01-05 21:07:07,410 INFO     ___FILE_ONLY___ 
    "platform_required": false,
2022-01-05 21:07:07,410 INFO     ___FILE_ONLY___ 
    "size": 0,
2022-01-05 21:07:07,410 INFO     ___FILE_ONLY___ 
    "state": {
2022-01-05 21:07:07,410 INFO     ___FILE_ONLY___ 
      "name": "Not Installed"
2022-01-05 21:07:07,410 INFO     ___FILE_ONLY___ 
    }
2022-01-05 21:07:07,410 INFO     ___FILE_ONLY___ 
  }
2022-01-05 21:07:07,411 INFO     ___FILE_ONLY___ ,
  {
2022-01-05 21:07:07,411 INFO     ___FILE_ONLY___ 
    "current_version_string": "2.0.72",
2022-01-05 21:07:07,411 INFO     ___FILE_ONLY___ 
    "id": "bq",
2022-01-05 21:07:07,411 INFO     ___FILE_ONLY___ 
    "is_configuration": false,
2022-01-05 21:07:07,411 INFO     ___FILE_ONLY___ 
    "is_hidden": false,
2022-01-05 21:07:07,411 INFO     ___FILE_ONLY___ 
    "latest_version_string": "2.0.72",
2022-01-05 21:07:07,411 INFO     ___FILE_ONLY___ 
    "name": "BigQuery Command Line Tool",
2022-01-05 21:07:07,411 INFO     ___FILE_ONLY___ 
    "platform": {
2022-01-05 21:07:07,411 INFO     ___FILE_ONLY___ 
      "architecture": {
2022-01-05 21:07:07,411 INFO     ___FILE_ONLY___ 
        "file_name": "x86_64",
2022-01-05 21:07:07,412 INFO     ___FILE_ONLY___ 
        "id": "x86_64",
2022-01-05 21:07:07,412 INFO     ___FILE_ONLY___ 
        "name": "x86_64"
2022-01-05 21:07:07,412 INFO     ___FILE_ONLY___ 
      },
2022-01-05 21:07:07,412 INFO     ___FILE_ONLY___ 
      "operating_system": {
2022-01-05 21:07:07,412 INFO     ___FILE_ONLY___ 
        "file_name": "linux",
2022-01-05 21:07:07,412 INFO     ___FILE_ONLY___ 
        "id": "LINUX",
2022-01-05 21:07:07,412 INFO     ___FILE_ONLY___ 
        "name": "Linux"
2022-01-05 21:07:07,412 INFO     ___FILE_ONLY___ 
      }
2022-01-05 21:07:07,412 INFO     ___FILE_ONLY___ 
    },
2022-01-05 21:07:07,412 INFO     ___FILE_ONLY___ 
    "platform_required": false,
2022-01-05 21:07:07,412 INFO     ___FILE_ONLY___ 
    "size": 1083131,
2022-01-05 21:07:07,412 INFO     ___FILE_ONLY___ 
    "state": {
2022-01-05 21:07:07,412 INFO     ___FILE_ONLY___ 
      "name": "Installed"
2022-01-05 21:07:07,413 INFO     ___FILE_ONLY___ 
    }
2022-01-05 21:07:07,413 INFO     ___FILE_ONLY___ 
  }
2022-01-05 21:07:07,413 INFO     ___FILE_ONLY___ ,
  {
2022-01-05 21:07:07,414 INFO     ___FILE_ONLY___ 
    "current_version_string": "2021.12.10",
2022-01-05 21:07:07,414 INFO     ___FILE_ONLY___ 
    "id": "core",
2022-01-05 21:07:07,414 INFO     ___FILE_ONLY___ 
    "is_configuration": false,
2022-01-05 21:07:07,414 INFO     ___FILE_ONLY___ 
    "is_hidden": false,
2022-01-05 21:07:07,414 INFO     ___FILE_ONLY___ 
    "latest_version_string": "2021.12.10",
2022-01-05 21:07:07,414 INFO     ___FILE_ONLY___ 
    "name": "Cloud SDK Core Libraries",
2022-01-05 21:07:07,414 INFO     ___FILE_ONLY___ 
    "platform": {
2022-01-05 21:07:07,414 INFO     ___FILE_ONLY___ 
      "architecture": {
2022-01-05 21:07:07,414 INFO     ___FILE_ONLY___ 
        "file_name": "x86_64",
2022-01-05 21:07:07,415 INFO     ___FILE_ONLY___ 
        "id": "x86_64",
2022-01-05 21:07:07,415 INFO     ___FILE_ONLY___ 
        "name": "x86_64"
2022-01-05 21:07:07,415 INFO     ___FILE_ONLY___ 
      },
2022-01-05 21:07:07,415 INFO     ___FILE_ONLY___ 
      "operating_system": {
2022-01-05 21:07:07,415 INFO     ___FILE_ONLY___ 
        "file_name": "linux",
2022-01-05 21:07:07,415 INFO     ___FILE_ONLY___ 
        "id": "LINUX",
2022-01-05 21:07:07,415 INFO     ___FILE_ONLY___ 
        "name": "Linux"
2022-01-05 21:07:07,415 INFO     ___FILE_ONLY___ 
      }
2022-01-05 21:07:07,415 INFO     ___FILE_ONLY___ 
    },
2022-01-05 21:07:07,415 INFO     ___FILE_ONLY___ 
    "platform_required": false,
2022-01-05 21:07:07,416 INFO     ___FILE_ONLY___ 
    "size": 22554557,
2022-01-05 21:07:07,416 INFO     ___FILE_ONLY___ 
    "state": {
2022-01-05 21:07:07,416 INFO     ___FILE_ONLY___ 
      "name": "Installed"
2022-01-05 21:07:07,416 INFO     ___FILE_ONLY___ 
    }
2022-01-05 21:07:07,416 INFO     ___FILE_ONLY___ 
  }
2022-01-05 21:07:07,416 INFO     ___FILE_ONLY___ ,
  {
2022-01-05 21:07:07,417 INFO     ___FILE_ONLY___ 
    "current_version_string": "5.5",
2022-01-05 21:07:07,417 INFO     ___FILE_ONLY___ 
    "id": "gsutil",
2022-01-05 21:07:07,417 INFO     ___FILE_ONLY___ 
    "is_configuration": false,
2022-01-05 21:07:07,417 INFO     ___FILE_ONLY___ 
    "is_hidden": false,
2022-01-05 21:07:07,417 INFO     ___FILE_ONLY___ 
    "latest_version_string": "5.5",
2022-01-05 21:07:07,417 INFO     ___FILE_ONLY___ 
    "name": "Cloud Storage Command Line Tool",
2022-01-05 21:07:07,417 INFO     ___FILE_ONLY___ 
    "platform": {
2022-01-05 21:07:07,417 INFO     ___FILE_ONLY___ 
      "architecture": {
2022-01-05 21:07:07,417 INFO     ___FILE_ONLY___ 
        "file_name": "x86_64",
2022-01-05 21:07:07,417 INFO     ___FILE_ONLY___ 
        "id": "x86_64",
2022-01-05 21:07:07,417 INFO     ___FILE_ONLY___ 
        "name": "x86_64"
2022-01-05 21:07:07,417 INFO     ___FILE_ONLY___ 
      },
2022-01-05 21:07:07,417 INFO     ___FILE_ONLY___ 
      "operating_system": {
2022-01-05 21:07:07,417 INFO     ___FILE_ONLY___ 
        "file_name": "linux",
2022-01-05 21:07:07,417 INFO     ___FILE_ONLY___ 
        "id": "LINUX",
2022-01-05 21:07:07,417 INFO     ___FILE_ONLY___ 
        "name": "Linux"
2022-01-05 21:07:07,418 INFO     ___FILE_ONLY___ 
      }
2022-01-05 21:07:07,418 INFO     ___FILE_ONLY___ 
    },
2022-01-05 21:07:07,418 INFO     ___FILE_ONLY___ 
    "platform_required": false,
2022-01-05 21:07:07,418 INFO     ___FILE_ONLY___ 
    "size": 8492857,
2022-01-05 21:07:07,418 INFO     ___FILE_ONLY___ 
    "state": {
2022-01-05 21:07:07,418 INFO     ___FILE_ONLY___ 
      "name": "Installed"
2022-01-05 21:07:07,418 INFO     ___FILE_ONLY___ 
    }
2022-01-05 21:07:07,418 INFO     ___FILE_ONLY___ 
  }
2022-01-05 21:07:07,418 INFO     ___FILE_ONLY___ 
]

