2022-01-05 21:07:01,312 DEBUG    root            Loaded Command Group: ['gcloud', 'config']
2022-01-05 21:07:01,315 DEBUG    root            Loaded Command Group: ['gcloud', 'config', 'config_helper']
2022-01-05 21:07:01,318 DEBUG    root            Running [gcloud.config.config-helper] with arguments: [--format: "json", --quiet: "True"]
2022-01-05 21:07:01,319 WARNING  root            Could not open the configuration file: [/home/neko_ill/.config/gcloud/configurations/config_default].
2022-01-05 21:07:01,319 DEBUG    root            (gcloud.config.config-helper) You do not currently have an active account selected.
Please run:

  $ gcloud auth login

to obtain new credentials.

If you have already logged in with a different account:

    $ gcloud config set account ACCOUNT

to select an already authenticated account to use.
Traceback (most recent call last):
  File "/home/neko_ill/.cache/cloud-code/installer/google-cloud-sdk/lib/googlecloudsdk/calliope/cli.py", line 987, in Execute
    resources = calliope_command.Run(cli=self, args=args)
  File "/home/neko_ill/.cache/cloud-code/installer/google-cloud-sdk/lib/googlecloudsdk/calliope/backend.py", line 809, in Run
    resources = command_instance.Run(args)
  File "/home/neko_ill/.cache/cloud-code/installer/google-cloud-sdk/lib/surface/config/config_helper.py", line 99, in Run
    cred = store.Load(use_google_auth=True)
  File "/home/neko_ill/.cache/cloud-code/installer/google-cloud-sdk/lib/googlecloudsdk/core/credentials/store.py", line 557, in Load
    cred = _Load(account, scopes, prevent_refresh, use_google_auth)
  File "/home/neko_ill/.cache/cloud-code/installer/google-cloud-sdk/lib/googlecloudsdk/core/credentials/store.py", line 671, in _Load
    raise creds_exceptions.NoActiveAccountException(
googlecloudsdk.core.credentials.exceptions.NoActiveAccountException: You do not currently have an active account selected.
Please run:

  $ gcloud auth login

to obtain new credentials.

If you have already logged in with a different account:

    $ gcloud config set account ACCOUNT

to select an already authenticated account to use.
2022-01-05 21:07:01,321 ERROR    root            (gcloud.config.config-helper) You do not currently have an active account selected.
Please run:

  $ gcloud auth login

to obtain new credentials.

If you have already logged in with a different account:

    $ gcloud config set account ACCOUNT

to select an already authenticated account to use.
